…
Breaking up the text into individual words.

``` r
words <- text %>%
   unnest_tokens(word, text)
words
```

    ## # A tibble: 83,658 × 2
    ##    book       word      
    ##    <fct>      <chr>     
    ##  1 Persuasion persuasion
    ##  2 Persuasion by        
    ##  3 Persuasion jane      
    ##  4 Persuasion austen    
    ##  5 Persuasion 1818      
    ##  6 Persuasion chapter   
    ##  7 Persuasion 1         
    ##  8 Persuasion sir       
    ##  9 Persuasion walter    
    ## 10 Persuasion elliot    
    ## # ℹ 83,648 more rows

Remove the stop words using stop_words dataset.

``` r
data("stop_words")
filtered_words <- words %>%
  anti_join(stop_words, by = "word")
filtered_words
```

    ## # A tibble: 25,488 × 2
    ##    book       word      
    ##    <fct>      <chr>     
    ##  1 Persuasion persuasion
    ##  2 Persuasion jane      
    ##  3 Persuasion austen    
    ##  4 Persuasion 1818      
    ##  5 Persuasion chapter   
    ##  6 Persuasion 1         
    ##  7 Persuasion sir       
    ##  8 Persuasion walter    
    ##  9 Persuasion elliot    
    ## 10 Persuasion kellynch  
    ## # ℹ 25,478 more rows

Counting and sorting the words.

``` r
word_counts <- filtered_words %>%
  count(word, sort = TRUE)
word_counts
```

    ## # A tibble: 5,340 × 2
    ##    word          n
    ##    <chr>     <int>
    ##  1 anne        447
    ##  2 captain     303
    ##  3 elliot      254
    ##  4 lady        214
    ##  5 wentworth   191
    ##  6 charles     155
    ##  7 time        152
    ##  8 sir         149
    ##  9 miss        125
    ## 10 walter      123
    ## # ℹ 5,330 more rows
…
